<svg width="60" height="60" viewBox="0 0 60 60" fill="none" xmlns="http://www.w3.org/2000/svg">
<path d="M7.5 25C13.7075 25 18.3625 17.5 18.3625 17.5C18.3625 17.5 23.0175 25 29.225 25C35.43 25 41.6375 17.5 41.6375 17.5C41.6375 17.5 47.845 25 52.5 25" stroke="#EA4709" stroke-width="3" stroke-linecap="round" stroke-linejoin="round"/>
<path d="M7.5 42.5C13.7075 42.5 18.3625 35 18.3625 35C18.3625 35 23.0175 42.5 29.225 42.5C35.43 42.5 41.6375 35 41.6375 35C41.6375 35 47.845 42.5 52.5 42.5" stroke="#EA4709" stroke-width="3" stroke-linecap="round" stroke-linejoin="round"/>
</svg>
